
{
  "header": {
    "reportVersion": 1,
    "event": "Allocation failed - JavaScript heap out of memory",
    "trigger": "FatalError",
    "filename": "report.20220411.093030.12244.0.001.json",
    "dumpEventTime": "2022-04-11T09:30:30Z",
    "dumpEventTimeStamp": "1649649630866",
    "processId": 12244,
    "cwd": "C:\\wamp64\\www\\tigmo-starter\\web\\app\\themes\\tigmo-wp",
    "commandLine": [
      "node",
      "C:\\wamp64\\www\\tigmo-starter\\web\\app\\themes\\tigmo-wp\\node_modules\\.bin\\\\..\\gulp\\bin\\gulp.js"
    ],
    "nodejsVersion": "v12.13.0",
    "wordSize": 64,
    "arch": "x64",
    "platform": "win32",
    "componentVersions": {
      "node": "12.13.0",
      "v8": "7.7.299.13-node.12",
      "uv": "1.32.0",
      "zlib": "1.2.11",
      "brotli": "1.0.7",
      "ares": "1.15.0",
      "modules": "72",
      "nghttp2": "1.39.2",
      "napi": "5",
      "llhttp": "1.1.4",
      "http_parser": "2.8.0",
      "openssl": "1.1.1d",
      "cldr": "35.1",
      "icu": "64.2",
      "tz": "2019a",
      "unicode": "12.1"
    },
    "release": {
      "name": "node",
      "lts": "Erbium",
      "headersUrl": "https://nodejs.org/download/release/v12.13.0/node-v12.13.0-headers.tar.gz",
      "sourceUrl": "https://nodejs.org/download/release/v12.13.0/node-v12.13.0.tar.gz",
      "libUrl": "https://nodejs.org/download/release/v12.13.0/win-x64/node.lib"
    },
    "osName": "Windows_NT",
    "osRelease": "10.0.19044",
    "osVersion": "Windows 10 Pro",
    "osMachine": "x86_64",
    "cpus": [
      {
        "model": "Intel(R) Core(TM) i5-2400 CPU @ 3.10GHz",
        "speed": 3093,
        "user": 13689171,
        "nice": 0,
        "sys": 5753937,
        "idle": 89239390,
        "irq": 853390
      },
      {
        "model": "Intel(R) Core(TM) i5-2400 CPU @ 3.10GHz",
        "speed": 3093,
        "user": 17427671,
        "nice": 0,
        "sys": 5071687,
        "idle": 86182953,
        "irq": 73328
      },
      {
        "model": "Intel(R) Core(TM) i5-2400 CPU @ 3.10GHz",
        "speed": 3093,
        "user": 17666921,
        "nice": 0,
        "sys": 4340968,
        "idle": 86674421,
        "irq": 64328
      },
      {
        "model": "Intel(R) Core(TM) i5-2400 CPU @ 3.10GHz",
        "speed": 3093,
        "user": 20876703,
        "nice": 0,
        "sys": 4066859,
        "idle": 83738750,
        "irq": 53000
      }
    ],
    "networkInterfaces": [
      {
        "name": "Ethernet",
        "internal": false,
        "mac": "24:be:05:06:1e:c8",
        "address": "fe80::41e0:8b1c:90f6:45c5",
        "netmask": "ffff:ffff:ffff:ffff::",
        "family": "IPv6",
        "scopeid": 11
      },
      {
        "name": "Ethernet",
        "internal": false,
        "mac": "24:be:05:06:1e:c8",
        "address": "192.168.0.103",
        "netmask": "255.255.255.0",
        "family": "IPv4"
      },
      {
        "name": "Loopback Pseudo-Interface 1",
        "internal": true,
        "mac": "00:00:00:00:00:00",
        "address": "::1",
        "netmask": "ffff:ffff:ffff:ffff:ffff:ffff:ffff:ffff",
        "family": "IPv6",
        "scopeid": 0
      },
      {
        "name": "Loopback Pseudo-Interface 1",
        "internal": true,
        "mac": "00:00:00:00:00:00",
        "address": "127.0.0.1",
        "netmask": "255.0.0.0",
        "family": "IPv4"
      }
    ],
    "host": "DESKTOP-0I11CNA"
  },
  "javascriptStack": {
    "message": "No stack.",
    "stack": [
      "Unavailable."
    ]
  },
  "nativeStack": [
    {
      "pc": "0x00007ff7661c1389",
      "symbol": "std::basic_ostream<char,std::char_traits<char> >::operator<<+10873"
    },
    {
      "pc": "0x00007ff7661c57cc",
      "symbol": "std::basic_ostream<char,std::char_traits<char> >::operator<<+28348"
    },
    {
      "pc": "0x00007ff7661c4778",
      "symbol": "std::basic_ostream<char,std::char_traits<char> >::operator<<+24168"
    },
    {
      "pc": "0x00007ff7662b332b",
      "symbol": "v8::base::CPU::has_sse+37723"
    },
    {
      "pc": "0x00007ff766ab6f4e",
      "symbol": "v8::Isolate::ReportExternalAllocationLimitReached+94"
    },
    {
      "pc": "0x00007ff766a9ef91",
      "symbol": "v8::SharedArrayBuffer::Externalize+833"
    },
    {
      "pc": "0x00007ff76696c85c",
      "symbol": "v8::internal::Heap::EphemeronKeyWriteBarrierFromCode+1436"
    },
    {
      "pc": "0x00007ff766977c00",
      "symbol": "v8::internal::Heap::ProtectUnprotectedMemoryChunks+1312"
    },
    {
      "pc": "0x00007ff766974734",
      "symbol": "v8::internal::Heap::PageFlagsAreConsistent+3204"
    },
    {
      "pc": "0x00007ff766969fc3",
      "symbol": "v8::internal::Heap::CollectGarbage+1283"
    },
    {
      "pc": "0x00007ff766968794",
      "symbol": "v8::internal::Heap::AddRetainedMap+2356"
    },
    {
      "pc": "0x00007ff766989a65",
      "symbol": "v8::internal::Factory::NewFillerObject+53"
    },
    {
      "pc": "0x00007ff7666f6239",
      "symbol": "v8::internal::interpreter::JumpTableTargetOffsets::iterator::operator=+4057"
    },
    {
      "pc": "0x00007ff766ee2c6d",
      "symbol": "v8::internal::SetupIsolateDelegate::SetupHeap+567949"
    },
    {
      "pc": "0x000000e19274a1da",
      "symbol": ""
    }
  ],
  "javascriptHeap": {
    "totalMemory": 2153975808,
    "totalCommittedMemory": 2153975808,
    "usedMemory": 2131403896,
    "availableMemory": 48109568,
    "memoryLimit": 2197815296,
    "heapSpaces": {
      "read_only_space": {
        "memorySize": 262144,
        "committedMemory": 262144,
        "capacity": 261872,
        "used": 32296,
        "available": 229576
      },
      "new_space": {
        "memorySize": 4194304,
        "committedMemory": 4194304,
        "capacity": 2094976,
        "used": 173040,
        "available": 1921936
      },
      "old_space": {
        "memorySize": 2010755072,
        "committedMemory": 2010755072,
        "capacity": 1998927736,
        "used": 1998904144,
        "available": 23592
      },
      "code_space": {
        "memorySize": 1998848,
        "committedMemory": 1998848,
        "capacity": 1772640,
        "used": 1772640,
        "available": 0
      },
      "map_space": {
        "memorySize": 8130560,
        "committedMemory": 8130560,
        "capacity": 2021120,
        "used": 2021120,
        "available": 0
      },
      "large_object_space": {
        "memorySize": 128585728,
        "committedMemory": 128585728,
        "capacity": 128497104,
        "used": 128497104,
        "available": 0
      },
      "code_large_object_space": {
        "memorySize": 49152,
        "committedMemory": 49152,
        "capacity": 3552,
        "used": 3552,
        "available": 0
      },
      "new_large_object_space": {
        "memorySize": 0,
        "committedMemory": 0,
        "capacity": 2094976,
        "used": 0,
        "available": 2094976
      }
    }
  },
  "resourceUsage": {
    "userCpuSeconds": 1446.58,
    "kernelCpuSeconds": 1027.89,
    "cpuConsumptionPercent": 1.03442,
    "maxRss": 4720013312,
    "pageFaults": {
      "IORequired": 12060097,
      "IONotRequired": 0
    },
    "fsActivity": {
      "reads": 9991,
      "writes": 287
    }
  },
  "libuv": [
  ],
  "environmentVariables": {
    "": "C:=C:\\wamp64\\www\\tigmo-starter\\web\\app\\themes\\tigmo-wp",
    "ALLUSERSPROFILE": "C:\\ProgramData",
    "APPDATA": "C:\\Users\\Tigmo5\\AppData\\Roaming",
    "CHROME_CRASHPAD_PIPE_NAME": "\\\\.\\pipe\\crashpad_5724_ORFRZEAOFKDYCKUM",
    "COLORTERM": "truecolor",
    "CommonProgramFiles": "C:\\Program Files\\Common Files",
    "CommonProgramFiles(x86)": "C:\\Program Files (x86)\\Common Files",
    "CommonProgramW6432": "C:\\Program Files\\Common Files",
    "COMPUTERNAME": "DESKTOP-0I11CNA",
    "ComSpec": "C:\\WINDOWS\\system32\\cmd.exe",
    "dp0": "C:\\wamp64\\www\\tigmo-starter\\web\\app\\themes\\tigmo-wp\\node_modules\\.bin\\",
    "DriverData": "C:\\Windows\\System32\\Drivers\\DriverData",
    "FPS_BROWSER_APP_PROFILE_STRING": "Internet Explorer",
    "FPS_BROWSER_USER_PROFILE_STRING": "Default",
    "GIT_ASKPASS": "c:\\Users\\Tigmo5\\AppData\\Local\\Programs\\Microsoft VS Code\\resources\\app\\extensions\\git\\dist\\askpass.sh",
    "HOME": "C:\\Users\\Tigmo5",
    "HOMEDRIVE": "C:",
    "HOMEPATH": "\\Users\\Tigmo5",
    "INIT_CWD": "C:\\wamp64\\www\\tigmo-starter\\web\\app\\themes\\tigmo-wp",
    "LANG": "en_US.UTF-8",
    "LOCALAPPDATA": "C:\\Users\\Tigmo5\\AppData\\Local",
    "LOGONSERVER": "\\\\DESKTOP-0I11CNA",
    "NODE": "C:\\Program Files\\nodejs\\node.exe",
    "NODE_EXE": "C:\\Program Files\\nodejs\\\\node.exe",
    "NPM_CLI_JS": "C:\\Program Files\\nodejs\\\\node_modules\\npm\\bin\\npm-cli.js",
    "npm_config_access": "",
    "npm_config_allow_same_version": "",
    "npm_config_also": "",
    "npm_config_always_auth": "",
    "npm_config_argv": "{\"remain\":[],\"cooked\":[\"start\"],\"original\":[\"start\"]}",
    "npm_config_audit": "true",
    "npm_config_audit_level": "low",
    "npm_config_auth_type": "legacy",
    "npm_config_before": "",
    "npm_config_bin_links": "true",
    "npm_config_browser": "",
    "npm_config_ca": "",
    "npm_config_cache": "C:\\Users\\Tigmo5\\AppData\\Roaming\\npm-cache",
    "npm_config_cache_lock_retries": "10",
    "npm_config_cache_lock_stale": "60000",
    "npm_config_cache_lock_wait": "10000",
    "npm_config_cache_max": "Infinity",
    "npm_config_cache_min": "10",
    "npm_config_cafile": "",
    "npm_config_cert": "",
    "npm_config_cidr": "",
    "npm_config_color": "true",
    "npm_config_commit_hooks": "true",
    "npm_config_depth": "Infinity",
    "npm_config_description": "true",
    "npm_config_dev": "",
    "npm_config_dry_run": "",
    "npm_config_editor": "notepad.exe",
    "npm_config_engine_strict": "",
    "npm_config_fetch_retries": "2",
    "npm_config_fetch_retry_factor": "10",
    "npm_config_fetch_retry_maxtimeout": "60000",
    "npm_config_fetch_retry_mintimeout": "10000",
    "npm_config_force": "",
    "npm_config_format_package_lock": "true",
    "npm_config_git": "git",
    "npm_config_git_tag_version": "true",
    "npm_config_global": "",
    "npm_config_globalconfig": "C:\\Users\\Tigmo5\\AppData\\Roaming\\npm\\etc\\npmrc",
    "npm_config_globalignorefile": "C:\\Users\\Tigmo5\\AppData\\Roaming\\npm\\etc\\npmignore",
    "npm_config_global_style": "",
    "npm_config_group": "",
    "npm_config_ham_it_up": "",
    "npm_config_heading": "npm",
    "npm_config_https_proxy": "",
    "npm_config_if_present": "",
    "npm_config_ignore_prepublish": "",
    "npm_config_ignore_scripts": "",
    "npm_config_init_author_email": "",
    "npm_config_init_author_name": "",
    "npm_config_init_author_url": "",
    "npm_config_init_license": "ISC",
    "npm_config_init_module": "C:\\Users\\Tigmo5\\.npm-init.js",
    "npm_config_init_version": "1.0.0",
    "npm_config_json": "",
    "npm_config_key": "",
    "npm_config_legacy_bundling": "",
    "npm_config_link": "",
    "npm_config_local_address": "",
    "npm_config_loglevel": "notice",
    "npm_config_logs_max": "10",
    "npm_config_long": "",
    "npm_config_maxsockets": "50",
    "npm_config_message": "%s",
    "npm_config_metrics_registry": "https://registry.npmjs.org/",
    "npm_config_node_gyp": "C:\\Program Files\\nodejs\\node_modules\\npm\\node_modules\\node-gyp\\bin\\node-gyp.js",
    "npm_config_node_options": "",
    "npm_config_node_version": "12.13.0",
    "npm_config_noproxy": "",
    "npm_config_offline": "",
    "npm_config_onload_script": "",
    "npm_config_only": "",
    "npm_config_optional": "true",
    "npm_config_otp": "",
    "npm_config_package_lock": "true",
    "npm_config_package_lock_only": "",
    "npm_config_parseable": "",
    "npm_config_prefer_offline": "",
    "npm_config_prefer_online": "",
    "npm_config_prefix": "C:\\Users\\Tigmo5\\AppData\\Roaming\\npm",
    "npm_config_preid": "",
    "npm_config_production": "",
    "npm_config_progress": "true",
    "npm_config_proxy": "",
    "npm_config_read_only": "",
    "npm_config_rebuild_bundle": "true",
    "npm_config_registry": "https://registry.npmjs.org/",
    "npm_config_rollback": "true",
    "npm_config_save": "true",
    "npm_config_save_bundle": "",
    "npm_config_save_dev": "",
    "npm_config_save_exact": "",
    "npm_config_save_optional": "",
    "npm_config_save_prefix": "^",
    "npm_config_save_prod": "",
    "npm_config_scope": "",
    "npm_config_scripts_prepend_node_path": "warn-only",
    "npm_config_script_shell": "",
    "npm_config_searchexclude": "",
    "npm_config_searchlimit": "20",
    "npm_config_searchopts": "",
    "npm_config_searchstaleness": "900",
    "npm_config_send_metrics": "",
    "npm_config_shell": "C:\\WINDOWS\\system32\\cmd.exe",
    "npm_config_shrinkwrap": "true",
    "npm_config_sign_git_commit": "",
    "npm_config_sign_git_tag": "",
    "npm_config_sso_poll_frequency": "500",
    "npm_config_sso_type": "oauth",
    "npm_config_strict_ssl": "true",
    "npm_config_tag": "latest",
    "npm_config_tag_version_prefix": "v",
    "npm_config_timing": "",
    "npm_config_tmp": "C:\\Users\\Tigmo5\\AppData\\Local\\Temp",
    "npm_config_umask": "0000",
    "npm_config_unicode": "",
    "npm_config_unsafe_perm": "true",
    "npm_config_update_notifier": "true",
    "npm_config_usage": "",
    "npm_config_user": "",
    "npm_config_userconfig": "C:\\Users\\Tigmo5\\.npmrc",
    "npm_config_user_agent": "npm/6.12.0 node/v12.13.0 win32 x64",
    "npm_config_version": "",
    "npm_config_versions": "",
    "npm_config_viewer": "browser",
    "npm_execpath": "C:\\Program Files\\nodejs\\node_modules\\npm\\bin\\npm-cli.js",
    "npm_lifecycle_event": "start",
    "npm_lifecycle_script": "gulp",
    "npm_node_execpath": "C:\\Program Files\\nodejs\\node.exe",
    "npm_package_bugs_url": "https://github.com/ahmadawais/WPGulp/issues",
    "npm_package_description": "A WPGulp based project.",
    "npm_package_devDependencies_beepbeep": "^1.2.2",
    "npm_package_devDependencies_browser_sync": "^2.11.1",
    "npm_package_devDependencies_eslint": "^7.12.0",
    "npm_package_devDependencies_eslint_config_wordpress": "^2.0.0",
    "npm_package_devDependencies_gulp": "^4.0.0",
    "npm_package_devDependencies_gulp_autoprefixer": "^7.0.1",
    "npm_package_devDependencies_gulp_babel": "^8.0.0",
    "npm_package_devDependencies_gulp_cache": "^1.0.2",
    "npm_package_devDependencies_gulp_concat": "^2.5.2",
    "npm_package_devDependencies_gulp_filter": "^6.0.0",
    "npm_package_devDependencies_gulp_imagemin": "^7.1.0",
    "npm_package_devDependencies_gulp_line_ending_corrector": "^1.0.1",
    "npm_package_devDependencies_gulp_merge_media_queries": "^0.2.1",
    "npm_package_devDependencies_gulp_notify": "^3.0.0",
    "npm_package_devDependencies_gulp_plumber": "^1.2.0",
    "npm_package_devDependencies_gulp_remember": "^1.0.1",
    "npm_package_devDependencies_gulp_rename": "^2.0.0",
    "npm_package_devDependencies_gulp_rtlcss": "^1.2.0",
    "npm_package_devDependencies_gulp_sass": "^5.1.0",
    "npm_package_devDependencies_gulp_sort": "^2.0.0",
    "npm_package_devDependencies_gulp_sourcemaps": "^3.0.0",
    "npm_package_devDependencies_gulp_uglify": "^3.0.0",
    "npm_package_devDependencies_gulp_uglifycss": "^1.0.6",
    "npm_package_devDependencies_gulp_wp_pot": "^2.0.7",
    "npm_package_devDependencies_gulp_zip": "^5.0.2",
    "npm_package_devDependencies_node_sass": "^7.0.1",
    "npm_package_devDependencies__babel_core": "^7.0.0",
    "npm_package_devDependencies__babel_preset_env": "^7.12.1",
    "npm_package_devDependencies__babel_register": "^7.0.0",
    "npm_package_homepage": "https://github.com/ahmadawais/WPGulp#readme",
    "npm_package_license": "MIT",
    "npm_package_name": "your-project",
    "npm_package_repository_type": "git",
    "npm_package_repository_url": "git+https://github.com/ahmadawais/WPGulp.git",
    "npm_package_scripts_cache_clear": "gulp clearCache",
    "npm_package_scripts_images": "gulp images",
    "npm_package_scripts_js_custom": "gulp customJS",
    "npm_package_scripts_js_vendors": "gulp vendorsJS",
    "npm_package_scripts_start": "gulp",
    "npm_package_scripts_styles": "gulp styles",
    "npm_package_scripts_styles_rtl": "gulp stylesRTL",
    "npm_package_scripts_translate": "gulp translate",
    "npm_package_scripts_zip": "gulp zip",
    "npm_package_version": "0.0.1",
    "NPM_PREFIX_NPM_CLI_JS": "C:\\Users\\Tigmo5\\AppData\\Roaming\\npm\\node_modules\\npm\\bin\\npm-cli.js",
    "NUMBER_OF_PROCESSORS": "4",
    "OneDrive": "C:\\Users\\Tigmo5\\OneDrive",
    "ORIGINAL_XDG_CURRENT_DESKTOP": "undefined",
    "OS": "Windows_NT",
    "Path": "C:\\Program Files\\nodejs\\node_modules\\npm\\node_modules\\npm-lifecycle\\node-gyp-bin;C:\\wamp64\\www\\tigmo-starter\\web\\app\\themes\\tigmo-wp\\node_modules\\.bin;C:\\Windows\\system32;C:\\Windows;C:\\Windows\\System32\\Wbem;C:\\Windows\\System32\\WindowsPowerShell\\v1.0\\;C:\\Program Files (x86)\\NVIDIA Corporation\\PhysX\\Common;C:\\Program Files\\NVIDIA Corporation\\NVIDIA NvDLISR;C:\\Program Files\\Git\\cmd;C:\\wamp64\\bin\\php\\php7.4.9;C:\\ProgramData\\ComposerSetup\\bin;C:\\WINDOWS\\system32;C:\\WINDOWS;C:\\WINDOWS\\System32\\Wbem;C:\\WINDOWS\\System32\\WindowsPowerShell\\v1.0\\;C:\\WINDOWS\\System32\\OpenSSH\\;C:\\Program Files\\nodejs\\;C:\\Users\\Tigmo5\\AppData\\Local\\Microsoft\\WindowsApps;C:\\Users\\Tigmo5\\AppData\\Local\\Programs\\Microsoft VS Code\\bin;C:\\Users\\Tigmo5\\AppData\\Roaming\\Composer\\vendor\\bin;C:\\Users\\Tigmo5\\AppData\\Roaming\\npm;C:\\wamp64\\bin\\mysql\\mysql5.7.31\\bin;",
    "PATHEXT": ".COM;.EXE;.BAT;.CMD;.VBS;.VBE;.JSE;.WSF;.WSH;.MSC;.CPL",
    "PROCESSOR_ARCHITECTURE": "AMD64",
    "PROCESSOR_IDENTIFIER": "Intel64 Family 6 Model 42 Stepping 7, GenuineIntel",
    "PROCESSOR_LEVEL": "6",
    "PROCESSOR_REVISION": "2a07",
    "ProgramData": "C:\\ProgramData",
    "ProgramFiles": "C:\\Program Files",
    "ProgramFiles(x86)": "C:\\Program Files (x86)",
    "ProgramW6432": "C:\\Program Files",
    "PROMPT": "$P$G",
    "PSModulePath": "C:\\Users\\Tigmo5\\Documents\\WindowsPowerShell\\Modules;C:\\Program Files\\WindowsPowerShell\\Modules;C:\\WINDOWS\\system32\\WindowsPowerShell\\v1.0\\Modules",
    "PUBLIC": "C:\\Users\\Public",
    "SESSIONNAME": "Console",
    "SystemDrive": "C:",
    "SystemRoot": "C:\\WINDOWS",
    "TEMP": "C:\\Users\\Tigmo5\\AppData\\Local\\Temp",
    "TERM_PROGRAM": "vscode",
    "TERM_PROGRAM_VERSION": "1.66.0",
    "TMP": "C:\\Users\\Tigmo5\\AppData\\Local\\Temp",
    "USERDOMAIN": "DESKTOP-0I11CNA",
    "USERDOMAIN_ROAMINGPROFILE": "DESKTOP-0I11CNA",
    "USERNAME": "Tigmo5",
    "USERPROFILE": "C:\\Users\\Tigmo5",
    "VSCODE_GIT_ASKPASS_EXTRA_ARGS": "--ms-enable-electron-run-as-node",
    "VSCODE_GIT_ASKPASS_MAIN": "c:\\Users\\Tigmo5\\AppData\\Local\\Programs\\Microsoft VS Code\\resources\\app\\extensions\\git\\dist\\askpass-main.js",
    "VSCODE_GIT_ASKPASS_NODE": "C:\\Users\\Tigmo5\\AppData\\Local\\Programs\\Microsoft VS Code\\Code.exe",
    "VSCODE_GIT_IPC_HANDLE": "\\\\.\\pipe\\vscode-git-84fe8c056b-sock",
    "windir": "C:\\WINDOWS",
    "_prog": "node"
  },
  "sharedObjects": [
    "C:\\Program Files\\nodejs\\node.exe",
    "C:\\WINDOWS\\SYSTEM32\\ntdll.dll",
    "C:\\WINDOWS\\System32\\KERNEL32.DLL",
    "C:\\WINDOWS\\System32\\KERNELBASE.dll",
    "C:\\WINDOWS\\System32\\WS2_32.dll",
    "C:\\WINDOWS\\System32\\RPCRT4.dll",
    "C:\\WINDOWS\\System32\\ADVAPI32.dll",
    "C:\\WINDOWS\\SYSTEM32\\dbghelp.dll",
    "C:\\WINDOWS\\System32\\msvcrt.dll",
    "C:\\WINDOWS\\System32\\ucrtbase.dll",
    "C:\\WINDOWS\\System32\\sechost.dll",
    "C:\\WINDOWS\\System32\\USER32.dll",
    "C:\\WINDOWS\\System32\\win32u.dll",
    "C:\\WINDOWS\\System32\\GDI32.dll",
    "C:\\WINDOWS\\System32\\gdi32full.dll",
    "C:\\WINDOWS\\System32\\msvcp_win.dll",
    "C:\\WINDOWS\\System32\\PSAPI.DLL",
    "C:\\WINDOWS\\System32\\CRYPT32.dll",
    "C:\\WINDOWS\\System32\\bcrypt.dll",
    "C:\\WINDOWS\\SYSTEM32\\USERENV.dll",
    "C:\\WINDOWS\\SYSTEM32\\IPHLPAPI.DLL",
    "C:\\WINDOWS\\SYSTEM32\\WINMM.dll",
    "C:\\WINDOWS\\System32\\IMM32.DLL",
    "C:\\WINDOWS\\SYSTEM32\\powrprof.dll",
    "C:\\WINDOWS\\SYSTEM32\\UMPDC.dll",
    "C:\\WINDOWS\\system32\\uxtheme.dll",
    "C:\\WINDOWS\\System32\\combase.dll",
    "C:\\WINDOWS\\system32\\mswsock.dll",
    "C:\\WINDOWS\\SYSTEM32\\kernel.appcore.dll",
    "C:\\WINDOWS\\System32\\bcryptprimitives.dll",
    "\\\\?\\C:\\wamp64\\www\\tigmo-starter\\web\\app\\themes\\tigmo-wp\\node_modules\\node-sass\\vendor\\win32-x64-72\\binding.node",
    "C:\\WINDOWS\\SYSTEM32\\CRYPTBASE.DLL",
    "C:\\WINDOWS\\System32\\NSI.dll",
    "C:\\WINDOWS\\SYSTEM32\\dhcpcsvc6.DLL",
    "C:\\WINDOWS\\SYSTEM32\\dhcpcsvc.DLL",
    "C:\\WINDOWS\\SYSTEM32\\DNSAPI.dll",
    "C:\\WINDOWS\\system32\\napinsp.dll",
    "C:\\WINDOWS\\system32\\pnrpnsp.dll",
    "C:\\WINDOWS\\system32\\wshbth.dll",
    "C:\\WINDOWS\\system32\\NLAapi.dll",
    "C:\\WINDOWS\\System32\\winrnr.dll"
  ]
}