{
    "key": "group_5ff50b4a83f92",
    "title": "Component - Video",
    "fields": [
        {
            "key": "field_5ff50bc67a91c",
            "label": "Video Type",
            "name": "video_type",
            "type": "select",
            "instructions": "",
            "required": 0,
            "conditional_logic": 0,
            "wrapper": {
                "width": "",
                "class": "",
                "id": ""
            },
            "choices": {
                "vimeo": "Vimeo",
                "youtube": "Youtube",
                "upload": "Upload"
            },
            "default_value": "Vimeo",
            "allow_null": 0,
            "multiple": 0,
            "ui": 1,
            "ajax": 0,
            "return_format": "value",
            "placeholder": ""
        },
        {
            "key": "field_5ff50bf27a91d",
            "label": "Video",
            "name": "video_embed",
            "type": "oembed",
            "instructions": "",
            "required": 0,
            "conditional_logic": [
                [
                    {
                        "field": "field_5ff50bc67a91c",
                        "operator": "==",
                        "value": "vimeo"
                    }
                ],
                [
                    {
                        "field": "field_5ff50bc67a91c",
                        "operator": "==",
                        "value": "youtube"
                    }
                ]
            ],
            "wrapper": {
                "width": "",
                "class": "",
                "id": ""
            },
            "width": "",
            "height": ""
        },
        {
            "key": "field_5ff50c397a920",
            "label": "Video File",
            "name": "video_file",
            "type": "file",
            "instructions": "",
            "required": 0,
            "conditional_logic": [
                [
                    {
                        "field": "field_5ff50bc67a91c",
                        "operator": "==",
                        "value": "upload"
                    }
                ]
            ],
            "wrapper": {
                "width": "",
                "class": "",
                "id": ""
            },
            "return_format": "url",
            "library": "all",
            "min_size": "",
            "max_size": "",
            "mime_types": ""
        }
    ],
    "location": [
        [
            {
                "param": "post_type",
                "operator": "==",
                "value": "post"
            }
        ]
    ],
    "menu_order": 0,
    "position": "normal",
    "style": "default",
    "label_placement": "top",
    "instruction_placement": "label",
    "hide_on_screen": "",
    "active": true,
    "description": "",
    "show_in_rest": 0,
    "modified": 1643116914
}